{
    "activities": [
        {
            "name": "\"AutoTimer \u2013 linux_tools.py\"",
            "time_entries": [
                {
                    "days": 0,
                    "end_time": "2022-09-26 00:10:19",
                    "hours": 0,
                    "minutes": 0,
                    "seconds": 0,
                    "start_time": "2022-09-26 00:10:19"
                },
                {
                    "days": 0,
                    "end_time": "2022-09-26 00:10:25",
                    "hours": 0,
                    "minutes": 0,
                    "seconds": 3,
                    "start_time": "2022-09-26 00:10:22"
                }
            ]
        },
        {
            "name": "\"~ : bash\"",
            "time_entries": [
                {
                    "days": 0,
                    "end_time": "2022-09-26 00:10:22",
                    "hours": 0,
                    "minutes": 0,
                    "seconds": 3,
                    "start_time": "2022-09-26 00:10:19"
                }
            ]
        },
        {
            "name": "\"AutoTimer \u2013 autotimer.py\"",
            "time_entries": [
                {
                    "days": 0,
                    "end_time": "2023-01-15 13:22:57",
                    "hours": 0,
                    "minutes": 7,
                    "seconds": 51,
                    "start_time": "2023-01-15 13:15:05"
                },
                {
                    "days": 0,
                    "end_time": "2023-01-15 13:27:47",
                    "hours": 0,
                    "minutes": 0,
                    "seconds": 13,
                    "start_time": "2023-01-15 13:27:33"
                },
                {
                    "days": 0,
                    "end_time": "2023-01-15 13:37:06",
                    "hours": 0,
                    "minutes": 7,
                    "seconds": 14,
                    "start_time": "2023-01-15 13:29:52"
                }
            ]
        },
        {
            "name": "\"Dokumenty - RTV EURO AGD Lider rynku RTV i AGD w Polsce \u2013 Brave\"",
            "time_entries": [
                {
                    "days": 0,
                    "end_time": "2023-01-15 13:29:51",
                    "hours": 0,
                    "minutes": 2,
                    "seconds": 4,
                    "start_time": "2023-01-15 13:27:47"
                }
            ]
        }
    ]
}